<svg xmlns="http://www.w3.org/2000/svg" width="213.57" height="210.646" viewBox="0 0 213.57 210.646">
  <g id="pattern-two" transform="translate(-242.43)" opacity="0.15">
    <g id="Group_79_Copy_3" data-name="Group 79 Copy 3" transform="translate(242.43)">
      <path id="Fill_1" data-name="Fill 1" d="M13.779,6.908A6.889,6.889,0,1,1,6.886,0a6.889,6.889,0,0,1,6.893,6.908" fill="#fff"/>
      <path id="Fill_3" data-name="Fill 3" d="M13.779,6.908A6.889,6.889,0,1,1,6.888,0a6.889,6.889,0,0,1,6.891,6.908" transform="translate(41.336)" fill="#fff"/>
      <path id="Fill_5" data-name="Fill 5" d="M13.779,6.908A6.889,6.889,0,1,1,6.889,0a6.889,6.889,0,0,1,6.89,6.908" transform="translate(79.227)" fill="#fff"/>
      <path id="Fill_7" data-name="Fill 7" d="M13.779,6.908A6.889,6.889,0,1,1,6.886,0a6.889,6.889,0,0,1,6.893,6.908" transform="translate(120.563)" fill="#fff"/>
      <path id="Fill_9" data-name="Fill 9" d="M13.779,6.908A6.889,6.889,0,1,1,6.888,0a6.889,6.889,0,0,1,6.891,6.908" transform="translate(158.455)" fill="#fff"/>
      <path id="Fill_14" data-name="Fill 14" d="M13.779,6.908A6.889,6.889,0,1,1,6.886,0a6.889,6.889,0,0,1,6.893,6.908" transform="translate(0 37.992)" fill="#fff"/>
      <path id="Fill_16" data-name="Fill 16" d="M13.779,6.908A6.889,6.889,0,1,1,6.888,0a6.889,6.889,0,0,1,6.891,6.908" transform="translate(41.336 37.992)" fill="#fff"/>
      <path id="Fill_18" data-name="Fill 18" d="M13.779,6.908A6.889,6.889,0,1,1,6.889,0a6.889,6.889,0,0,1,6.89,6.908" transform="translate(79.227 37.992)" fill="#fff"/>
      <path id="Fill_20" data-name="Fill 20" d="M13.779,6.908A6.889,6.889,0,1,1,6.886,0a6.889,6.889,0,0,1,6.893,6.908" transform="translate(120.563 37.992)" fill="#fff"/>
      <path id="Fill_22" data-name="Fill 22" d="M13.779,6.908A6.889,6.889,0,1,1,6.888,0a6.889,6.889,0,0,1,6.891,6.908" transform="translate(158.455 37.992)" fill="#fff"/>
      <path id="Fill_27" data-name="Fill 27" d="M13.779,8.635c0,4.767-3.084,8.634-6.892,8.634S0,13.4,0,8.635,3.084,0,6.886,0s6.892,3.867,6.892,8.635" transform="translate(0 79.438)" fill="#fff"/>
      <path id="Fill_29" data-name="Fill 29" d="M13.779,8.635c0,4.767-3.084,8.634-6.891,8.634S0,13.4,0,8.635,3.084,0,6.888,0s6.891,3.867,6.891,8.635" transform="translate(41.336 79.438)" fill="#fff"/>
      <path id="Fill_31" data-name="Fill 31" d="M13.779,8.635c0,4.767-3.085,8.634-6.889,8.634S0,13.4,0,8.635,3.083,0,6.889,0s6.889,3.867,6.889,8.635" transform="translate(79.227 79.438)" fill="#fff"/>
      <path id="Fill_33" data-name="Fill 33" d="M13.779,8.635c0,4.767-3.085,8.634-6.892,8.634S0,13.4,0,8.635,3.082,0,6.886,0s6.892,3.867,6.892,8.635" transform="translate(120.563 79.438)" fill="#fff"/>
      <path id="Fill_35" data-name="Fill 35" d="M13.779,8.635c0,4.767-3.083,8.634-6.891,8.634S0,13.4,0,8.635,3.084,0,6.888,0s6.891,3.867,6.891,8.635" transform="translate(158.455 79.438)" fill="#fff"/>
      <path id="Fill_40" data-name="Fill 40" d="M13.779,8.634c0,4.769-3.084,8.635-6.892,8.635S0,13.4,0,8.634,3.084,0,6.886,0s6.892,3.867,6.892,8.634" transform="translate(0 117.43)" fill="#fff"/>
      <path id="Fill_42" data-name="Fill 42" d="M13.779,8.634c0,4.769-3.084,8.635-6.891,8.635S0,13.4,0,8.634,3.084,0,6.888,0s6.891,3.867,6.891,8.634" transform="translate(41.336 117.43)" fill="#fff"/>
      <path id="Fill_44" data-name="Fill 44" d="M13.779,8.634c0,4.769-3.085,8.635-6.889,8.635S0,13.4,0,8.634,3.083,0,6.889,0s6.889,3.867,6.889,8.634" transform="translate(79.227 117.43)" fill="#fff"/>
      <path id="Fill_46" data-name="Fill 46" d="M13.779,8.634c0,4.769-3.085,8.635-6.892,8.635S0,13.4,0,8.634,3.082,0,6.886,0s6.892,3.867,6.892,8.634" transform="translate(120.563 117.43)" fill="#fff"/>
      <path id="Fill_48" data-name="Fill 48" d="M13.779,8.634c0,4.769-3.083,8.635-6.891,8.635S0,13.4,0,8.634,3.084,0,6.888,0s6.891,3.867,6.891,8.634" transform="translate(158.455 117.43)" fill="#fff"/>
      <path id="Fill_53" data-name="Fill 53" d="M13.779,6.908A6.889,6.889,0,1,1,6.886,0a6.889,6.889,0,0,1,6.893,6.908" transform="translate(0 158.876)" fill="#fff"/>
      <path id="Fill_55" data-name="Fill 55" d="M13.779,6.908A6.889,6.889,0,1,1,6.888,0a6.889,6.889,0,0,1,6.891,6.908" transform="translate(41.336 158.876)" fill="#fff"/>
      <path id="Fill_57" data-name="Fill 57" d="M13.779,6.908A6.889,6.889,0,1,1,6.889,0a6.889,6.889,0,0,1,6.89,6.908" transform="translate(79.227 158.876)" fill="#fff"/>
      <path id="Fill_59" data-name="Fill 59" d="M13.779,6.908A6.889,6.889,0,1,1,6.886,0a6.889,6.889,0,0,1,6.893,6.908" transform="translate(120.563 158.876)" fill="#fff"/>
      <path id="Fill_61" data-name="Fill 61" d="M13.779,6.908A6.889,6.889,0,1,1,6.888,0a6.889,6.889,0,0,1,6.891,6.908" transform="translate(158.455 158.876)" fill="#fff"/>
      <path id="Fill_66" data-name="Fill 66" d="M13.779,6.908A6.889,6.889,0,1,1,6.886,0a6.889,6.889,0,0,1,6.893,6.908" transform="translate(0 196.868)" fill="#fff"/>
      <path id="Fill_68" data-name="Fill 68" d="M13.779,6.908A6.889,6.889,0,1,1,6.888,0a6.889,6.889,0,0,1,6.891,6.908" transform="translate(41.336 196.868)" fill="#fff"/>
      <path id="Fill_70" data-name="Fill 70" d="M13.779,6.908A6.889,6.889,0,1,1,6.889,0a6.889,6.889,0,0,1,6.89,6.908" transform="translate(79.227 196.868)" fill="#fff"/>
      <path id="Fill_72" data-name="Fill 72" d="M13.779,6.908A6.889,6.889,0,1,1,6.886,0a6.889,6.889,0,0,1,6.893,6.908" transform="translate(120.563 196.868)" fill="#fff"/>
      <path id="Fill_74" data-name="Fill 74" d="M13.779,6.908A6.889,6.889,0,1,1,6.888,0a6.889,6.889,0,0,1,6.891,6.908" transform="translate(158.455 196.868)" fill="#fff"/>
      <path id="Fill_9_Copy" data-name="Fill 9 Copy" d="M13.779,6.908A6.889,6.889,0,1,1,6.888,0a6.889,6.889,0,0,1,6.891,6.908" transform="translate(199.791)" fill="#fff"/>
      <path id="Fill_22_Copy" data-name="Fill 22 Copy" d="M13.779,6.908A6.889,6.889,0,1,1,6.888,0a6.889,6.889,0,0,1,6.891,6.908" transform="translate(199.791 37.992)" fill="#fff"/>
      <path id="Fill_35_Copy" data-name="Fill 35 Copy" d="M13.779,8.635c0,4.767-3.083,8.634-6.891,8.634S0,13.4,0,8.635,3.084,0,6.888,0s6.891,3.867,6.891,8.635" transform="translate(199.791 79.438)" fill="#fff"/>
      <path id="Fill_48_Copy" data-name="Fill 48 Copy" d="M13.779,8.634c0,4.769-3.083,8.635-6.891,8.635S0,13.4,0,8.634,3.084,0,6.888,0s6.891,3.867,6.891,8.634" transform="translate(199.791 117.43)" fill="#fff"/>
      <path id="Fill_61_Copy" data-name="Fill 61 Copy" d="M13.779,6.908A6.889,6.889,0,1,1,6.888,0a6.889,6.889,0,0,1,6.891,6.908" transform="translate(199.791 158.876)" fill="#fff"/>
      <path id="Fill_74_Copy" data-name="Fill 74 Copy" d="M13.779,6.908A6.889,6.889,0,1,1,6.888,0a6.889,6.889,0,0,1,6.891,6.908" transform="translate(199.791 196.868)" fill="#fff"/>
    </g>
  </g>
</svg>
